<svg width="364" height="348" viewBox="0 0 364 348" fill="none" xmlns="http://www.w3.org/2000/svg">
<g clip-path="url(#clip0)">
<mask id="mask0" mask-type="alpha" maskUnits="userSpaceOnUse" x="59" y="20" width="166" height="332">
<rect x="59" y="20" width="166" height="332" fill="#494F66"/>
</mask>
<g mask="url(#mask0)">
<path d="M202.878 152.669H135.535V212.119H202.878V152.669Z" fill="#D6293A"/>
<path d="M199.613 155.946H138.8V208.842H199.613V155.946Z" fill="#E0363C"/>
<path d="M177.179 191.309C175.864 178.926 167.807 172.755 165.178 172.883C162.548 173.011 161.997 176.074 162.209 179.607C162.124 179.947 162.039 180.5 161.912 181.224C161.573 179.521 160.64 170.585 161.615 166.712C161.615 166.712 161.615 166.712 160.852 166.712C159.961 171.862 161.191 181.436 161.658 183.522C161.658 183.564 162.336 185.011 162.336 185.011C162.336 185.011 165.093 185.352 164.541 183.692C163.99 182.032 162.675 180.926 163.439 180.841C164.202 180.713 164.117 182.628 164.881 181.947C165.644 181.266 167.849 181.053 166.662 181.734C165.432 182.415 164.669 183.181 165.347 183.522C166.026 183.862 166.026 183.862 166.026 183.862C166.026 183.862 167.34 183.522 168.231 182.883C169.121 182.202 168.104 183.99 167.128 184.203C166.153 184.415 164.16 185.437 165.262 185.735C166.365 186.075 168.358 185.947 169.206 185.522C170.097 185.096 169.079 186.501 167.764 186.415C166.45 186.288 169.079 187.735 168.443 188.203C167.764 188.628 166.153 186.415 164.711 186.671C163.269 186.884 162.93 187.777 164.16 188.458C165.39 189.139 168.231 189.777 169.206 189.692C170.182 189.565 169.333 190.586 167.425 190.118C165.559 189.692 166.195 191.097 167.425 191.437C168.655 191.777 169.503 193.224 168.952 193.097C168.401 192.969 168.401 192.416 167.086 191.777C165.771 191.097 164.457 189.479 164.457 190.331C164.457 191.182 166.662 193.863 169.206 194.416C171.751 194.969 169.758 195.395 167.552 194.203C165.347 193.012 166.45 195.182 168.867 196.501C169.546 197.054 168.188 197.948 167.892 197.267C167.552 196.586 166.111 194.288 165.474 194.288C164.796 194.288 165.135 196.927 166.45 197.948C167.764 198.927 164.923 199.267 165.008 197.948C165.135 196.629 165.135 192.969 164.329 193.735C163.566 194.501 163.015 196.586 163.015 197.054C163.015 197.522 161.488 196.288 162.336 195.522C163.227 194.756 163.778 194.203 163.566 192.416C163.439 191.394 162.336 187.777 160.513 187.054C160.089 187.054 159.665 187.054 159.283 187.054C157.502 187.777 156.442 191.394 156.314 192.416C156.102 194.203 156.654 194.714 157.544 195.522C158.435 196.288 156.866 197.522 156.866 197.054C156.866 196.586 156.314 194.501 155.551 193.735C154.788 192.969 154.788 196.586 154.872 197.948C155 199.267 152.116 198.927 153.431 197.948C154.745 196.969 155.085 194.288 154.406 194.288C153.727 194.288 152.328 196.586 151.989 197.267C151.649 197.948 150.335 197.054 151.013 196.501C153.431 195.182 154.533 192.969 152.328 194.203C150.123 195.437 148.13 194.969 150.674 194.416C153.219 193.863 155.424 191.224 155.424 190.331C155.424 189.437 154.109 191.097 152.795 191.777C151.48 192.458 151.48 193.012 150.929 193.097C150.377 193.224 151.268 191.777 152.455 191.437C153.685 191.097 154.321 189.65 152.455 190.118C150.589 190.543 149.699 189.565 150.674 189.692C151.649 189.82 154.533 189.139 155.721 188.458C156.95 187.777 156.611 186.926 155.169 186.671C153.727 186.458 152.074 188.671 151.437 188.203C150.759 187.777 153.431 186.33 152.116 186.415C150.801 186.543 149.826 185.096 150.674 185.522C151.522 185.947 153.515 186.075 154.618 185.735C155.721 185.394 153.727 184.415 152.752 184.203C151.777 183.99 150.759 182.202 151.649 182.883C152.54 183.564 153.855 183.862 153.855 183.862C153.855 183.862 153.855 183.862 154.533 183.522C155.212 183.181 154.406 182.415 153.219 181.734C151.989 181.053 154.194 181.309 155 181.947C155.763 182.628 155.678 180.713 156.442 180.841C157.205 180.968 155.89 182.075 155.339 183.692C154.788 185.352 157.544 185.011 157.544 185.011C157.544 185.011 158.223 183.607 158.223 183.564C158.647 181.607 159.919 171.862 159.028 166.67C158.265 166.67 158.265 166.67 158.265 166.67C159.24 170.585 158.265 179.692 157.968 181.224C157.883 180.5 157.756 179.904 157.671 179.564C157.883 176.032 157.332 172.925 154.703 172.84C152.074 172.755 143.931 178.968 142.617 191.309C141.302 203.65 143.507 205.906 146.561 203.991C149.656 202.118 156.017 202.204 157.332 201.14C158.647 200.033 158.647 195.395 158.647 190.926C158.647 186.969 161.064 186.926 161.064 190.926C161.064 195.948 161.064 200.033 162.379 201.14C163.693 202.246 170.097 202.118 173.15 203.991C176.288 205.906 178.494 203.693 177.179 191.309Z" fill="#EF4552"/>
<path d="M196.305 162.244H142.065C141.769 162.244 141.557 161.989 141.557 161.733V158.329C141.557 158.031 141.811 157.818 142.065 157.818H196.305C196.602 157.818 196.814 158.074 196.814 158.329V161.733C196.814 161.989 196.602 162.244 196.305 162.244Z" fill="#D6293A"/>
<path d="M196.093 168.074H175.355C175.059 168.074 174.847 167.819 174.847 167.563V166.202C174.847 165.904 175.101 165.691 175.355 165.691H196.093C196.39 165.691 196.602 165.946 196.602 166.202V167.563C196.602 167.819 196.39 168.074 196.093 168.074Z" fill="#D6293A"/>
<path d="M196.093 205.182H182.65C182.353 205.182 182.141 204.927 182.141 204.672V203.31C182.141 203.012 182.395 202.799 182.65 202.799H196.093C196.39 202.799 196.602 203.055 196.602 203.31V204.672C196.602 204.97 196.39 205.182 196.093 205.182Z" fill="#D6293A"/>
<path d="M196.093 201.182H182.65C182.353 201.182 182.141 200.927 182.141 200.672V199.31C182.141 199.012 182.395 198.799 182.65 198.799H196.093C196.39 198.799 196.602 199.054 196.602 199.31V200.672C196.602 200.927 196.39 201.182 196.093 201.182Z" fill="#D6293A"/>
<path d="M195.966 172.542H180.868C180.572 172.542 180.36 172.287 180.36 172.032C180.36 171.734 180.614 171.521 180.868 171.521H195.966C196.262 171.521 196.475 171.776 196.475 172.032C196.517 172.287 196.262 172.542 195.966 172.542Z" fill="#EF4552"/>
<path d="M195.966 175.904H180.868C180.572 175.904 180.36 175.649 180.36 175.394C180.36 175.096 180.614 174.883 180.868 174.883H195.966C196.262 174.883 196.475 175.138 196.475 175.394C196.517 175.691 196.262 175.904 195.966 175.904Z" fill="#EF4552"/>
<path d="M195.966 179.309H180.868C180.572 179.309 180.36 179.053 180.36 178.798C180.36 178.5 180.614 178.287 180.868 178.287H195.966C196.262 178.287 196.475 178.543 196.475 178.798C196.517 179.096 196.262 179.309 195.966 179.309Z" fill="#EF4552"/>
<path d="M195.966 182.713H180.868C180.572 182.713 180.36 182.458 180.36 182.203C180.36 181.905 180.614 181.692 180.868 181.692H195.966C196.262 181.692 196.475 181.947 196.475 182.203C196.517 182.458 196.262 182.713 195.966 182.713Z" fill="#EF4552"/>
<path d="M195.966 186.118H180.868C180.572 186.118 180.36 185.862 180.36 185.607C180.36 185.309 180.614 185.096 180.868 185.096H195.966C196.262 185.096 196.475 185.352 196.475 185.607C196.517 185.862 196.262 186.118 195.966 186.118Z" fill="#EF4552"/>
<path d="M195.966 189.522H180.868C180.572 189.522 180.36 189.267 180.36 189.011C180.36 188.713 180.614 188.501 180.868 188.501H195.966C196.262 188.501 196.475 188.756 196.475 189.011C196.517 189.267 196.262 189.522 195.966 189.522Z" fill="#EF4552"/>
<path d="M210.476 80.6411H168.257V134.301H210.476V80.6411Z" fill="#EF4552"/>
<path d="M167.8 82.189H210.99C211.447 82.189 211.79 81.845 211.79 81.3864C211.733 80.9851 211.39 80.6411 210.99 80.6411H167.8C167.343 80.6411 167 80.9851 167 81.4437C167 81.845 167.343 82.189 167.8 82.189Z" fill="#D6293A"/>
<path d="M167.8 135.104H210.99C211.447 135.104 211.79 134.76 211.79 134.301C211.79 133.842 211.447 133.498 210.99 133.498H167.8C167.343 133.498 167 133.842 167 134.301C167 134.76 167.343 135.104 167.8 135.104Z" fill="#D6293A"/>
<path d="M206.534 85.1128H171.97V121.459H206.534V85.1128Z" fill="#F75C68"/>
<path d="M206.534 124.039H171.97V130.173H206.534V124.039Z" fill="#F75C68"/>
<path d="M189.623 102.541C189.566 102.483 189.109 99.6743 188.938 98.9863C188.766 98.3557 188.538 97.8971 188.367 97.6105C188.195 97.3811 187.967 96.3492 187.967 96.2346C187.967 96.1199 187.795 95.5466 187.795 95.088C187.795 94.6294 187.452 93.8268 187.11 93.4255C186.767 93.0815 186.024 93.0815 186.024 93.0815C185.853 93.0815 184.767 92.2789 184.767 92.2789L184.71 91.8776C184.824 91.8776 184.996 91.8776 185.167 91.8776C185.567 91.8776 185.453 91.4763 185.396 91.3616L185.567 91.1896V91.1323L185.453 91.0176L185.567 90.903V90.8457L185.51 90.6737L185.739 90.6163C185.91 90.559 185.796 90.4444 185.796 90.4444C185.796 90.4444 185.282 89.8137 185.339 89.8137C185.396 89.6991 185.396 89.6418 185.396 89.6418C185.396 89.5271 185.11 88.8391 185.11 88.8391C184.996 88.4952 184.367 87.9792 183.282 87.9792C182.197 87.9792 181.911 89.0685 181.911 89.5844C181.911 90.1577 182.654 91.6483 182.654 91.6483L182.596 92.3935C182.596 92.3935 181.511 93.1961 181.34 93.1961C181.34 93.1961 180.597 93.1961 180.254 93.5401C179.911 93.8841 179.569 94.6867 179.569 95.2026C179.569 95.6613 179.397 96.2346 179.397 96.3492C179.397 96.4639 179.112 97.4385 178.997 97.7251C178.826 97.9544 178.597 98.4131 178.426 99.101C178.255 99.7316 177.74 102.541 177.74 102.655C177.74 102.655 177.398 102.77 177.055 103.171C176.712 103.401 176.141 104.146 176.141 104.146C176.141 104.146 176.369 104.433 176.712 103.974C176.712 103.974 177.055 103.687 177.112 103.687L177.055 103.859C177.055 103.859 177.055 103.859 177.055 103.917L176.484 105.293C176.484 105.35 176.484 105.407 176.541 105.465C176.598 105.522 176.655 105.465 176.712 105.407L177.226 104.318C177.226 104.318 177.283 104.375 177.341 104.375L177.055 105.694C177.055 105.751 177.055 105.808 177.169 105.866C177.226 105.866 177.283 105.866 177.341 105.808L177.74 104.547C177.798 104.547 177.798 104.547 177.855 104.547L177.626 105.694C177.626 105.751 177.683 105.808 177.74 105.866C177.798 105.866 177.855 105.866 177.912 105.751L178.197 104.547C178.255 104.547 178.255 104.547 178.312 104.49L178.255 105.465C178.255 105.522 178.312 105.579 178.369 105.579C178.426 105.579 178.483 105.522 178.483 105.465L178.654 104.203L178.826 103.515C178.826 103.515 178.94 103.229 178.826 102.885C178.826 102.885 180.197 99.7316 180.254 99.3877C180.311 99.273 180.483 98.585 180.483 98.4704C180.54 98.2984 180.997 97.1518 181.168 96.9798C181.168 96.9798 181.397 99.273 181.397 99.6743C181.454 101.108 180.825 103.458 180.825 104.261C180.825 104.261 180.654 105.235 180.825 107.07C180.94 107.987 180.94 109.936 180.997 110.165C181.054 110.624 180.94 111.771 180.997 112.344C181.054 112.917 181.625 116.07 181.568 116.185C181.568 116.3 181.511 116.529 181.568 116.644C181.568 116.644 181.454 117.446 181.397 117.504L181.054 118.02C180.997 118.306 181.34 118.306 181.34 118.306H182.539C182.539 118.306 182.825 118.249 182.825 117.848C182.825 117.733 182.596 116.988 182.539 116.701C182.539 116.644 182.711 116.357 182.596 116.07C182.482 115.841 182.596 114.293 182.654 114.121C182.711 113.949 183.168 112.401 182.825 111.197C182.825 111.197 182.825 110.624 182.882 110.395C182.939 110.108 183.511 106.152 183.511 105.579C183.511 105.006 183.511 104.318 183.511 104.318C183.511 104.318 183.625 104.375 183.796 104.375C183.968 104.375 184.082 104.318 184.082 104.318C184.082 104.318 184.082 105.006 184.082 105.579C184.082 106.152 184.653 110.108 184.71 110.395C184.767 110.681 184.767 111.197 184.767 111.197C184.425 112.401 184.882 113.892 184.939 114.121C184.996 114.293 185.053 115.841 184.996 116.07C184.882 116.357 185.053 116.644 185.053 116.701C185.053 116.988 184.767 117.733 184.767 117.848C184.767 118.249 185.053 118.306 185.053 118.306H186.253C186.253 118.306 186.596 118.306 186.538 118.02L186.196 117.504C186.138 117.446 186.024 116.644 186.024 116.644C186.081 116.529 186.024 116.3 186.024 116.185C186.024 116.07 186.538 112.917 186.596 112.344C186.653 111.771 186.538 110.624 186.596 110.165C186.653 109.936 186.653 107.93 186.767 107.07C186.938 105.235 186.767 104.261 186.767 104.261C186.824 103.458 186.196 101.222 186.196 99.6743C186.196 99.273 186.424 96.9798 186.424 96.9798C186.596 97.1518 187.053 98.2984 187.11 98.4704C187.11 98.585 187.281 99.273 187.338 99.3877C187.452 99.7316 188.766 102.885 188.766 102.885C188.652 103.229 188.766 103.515 188.766 103.515L188.938 104.203L189.109 105.465C189.109 105.522 189.166 105.579 189.223 105.579C189.281 105.579 189.338 105.522 189.338 105.465L189.281 104.49C189.338 104.49 189.338 104.49 189.395 104.547L189.681 105.751C189.681 105.808 189.738 105.866 189.852 105.866C189.909 105.866 189.966 105.808 189.966 105.694L189.738 104.547C189.795 104.547 189.795 104.547 189.852 104.547L190.252 105.808C190.252 105.866 190.366 105.923 190.423 105.866C190.48 105.866 190.537 105.751 190.537 105.694L190.252 104.375C190.309 104.375 190.309 104.318 190.366 104.318L190.88 105.407C190.937 105.465 190.995 105.522 191.052 105.465C191.109 105.407 191.109 105.35 191.109 105.293L190.537 103.917C190.537 103.917 190.537 103.917 190.537 103.859L190.48 103.687C190.537 103.687 190.88 103.974 190.88 103.974C191.223 104.375 191.452 104.146 191.452 104.146C191.452 104.146 190.88 103.401 190.595 103.057C189.966 102.655 189.623 102.541 189.623 102.541Z" fill="#D6293A"/>
<path d="M200.592 90.8456C198.821 90.8456 197.45 92.2789 197.45 93.9987C197.45 95.7186 198.878 97.1518 200.592 97.1518C202.363 97.1518 203.734 95.7186 203.734 93.9987C203.734 92.2789 202.306 90.8456 200.592 90.8456ZM200.592 96.6932C199.107 96.6932 197.964 95.4893 197.964 94.0561C197.964 92.5655 199.164 91.4189 200.592 91.4189C202.021 91.4189 203.22 92.6228 203.22 94.0561C203.22 95.4893 202.021 96.6932 200.592 96.6932Z" fill="#D6293A"/>
<path d="M200.592 100.133C198.821 100.133 197.45 101.566 197.45 103.286C197.45 105.063 198.878 106.439 200.592 106.439C202.363 106.439 203.734 105.006 203.734 103.286C203.734 101.509 202.306 100.133 200.592 100.133ZM200.592 105.923C199.107 105.923 197.964 104.719 197.964 103.286C197.964 101.853 199.164 100.649 200.592 100.649C202.021 100.649 203.22 101.853 203.22 103.286C203.22 104.719 202.021 105.923 200.592 105.923Z" fill="#D6293A"/>
<path d="M200.592 109.363C198.821 109.363 197.45 110.796 197.45 112.516C197.45 114.293 198.878 115.669 200.592 115.669C202.363 115.669 203.734 114.236 203.734 112.516C203.734 110.796 202.306 109.363 200.592 109.363ZM200.592 115.21C199.107 115.21 197.964 114.006 197.964 112.573C197.964 111.083 199.164 109.936 200.592 109.936C202.021 109.936 203.22 111.14 203.22 112.573C203.22 114.006 202.021 115.21 200.592 115.21Z" fill="#D6293A"/>
<path d="M197.679 93.7694H183.625V94.2854H197.679V93.7694Z" fill="#D6293A"/>
<path d="M197.679 102.827H189.281V103.343H197.679V102.827Z" fill="#D6293A"/>
<path d="M197.679 112.287H185.51V112.803H197.679V112.287Z" fill="#D6293A"/>
<path d="M83.8425 199.56C83.8425 199.56 89.2486 204.61 94.0855 209.661C96.6463 212.328 101.021 217.876 100.63 219.833C99.2782 226.021 90.2088 221.006 89.2841 220.544C87.0079 219.441 75.449 202.797 75.449 202.797C75.9824 199.631 77.903 196.288 83.8425 199.56Z" fill="#CE7F67"/>
<path d="M110.659 183.093C105.644 184.978 103.617 195.932 99.8827 210.017C99.8827 210.017 91.8448 204.041 87.0079 201.018C87.0079 201.018 86.83 203.65 78.5076 210.123C78.5076 210.123 92.7696 227.551 100.096 226.377C106.107 225.417 109.059 208.167 109.059 208.167L110.659 183.093Z" fill="#BAE8E8"/>
<path d="M104.826 216.169L101.839 240.746L98.6379 277.201C98.4245 279.69 100.132 281.931 102.586 282.429C111.584 284.207 133.599 287.017 159.029 279.192L123.25 218.481L104.826 216.169Z" fill="#BAE8E8"/>
<path opacity="0.15" d="M114.216 331.617C101.199 330.941 76.7294 343.816 97.2154 344.563C119.266 345.345 112.082 348.262 128.051 351.071C144.02 353.881 155.01 349.933 156.646 344.349C159.278 335.493 150.529 333.466 114.216 331.617Z" fill="#001177"/>
<path d="M136.516 324.361V333.359L144.838 332.577L145.087 324.148L136.516 324.361Z" fill="#CE7F67"/>
<path d="M123.996 325.464L124.53 331.225L116.207 331.617L117.417 324.539L123.996 325.464Z" fill="#CE7F67"/>
<path d="M115.959 328.096C115.176 327.953 111.904 330.692 107.138 332.15C107.138 332.15 101.448 332.648 98.389 335.422C97.2509 336.454 97.8555 338.445 99.3849 338.552C104.115 338.801 114.074 339.05 125.241 337.805C125.241 337.805 127.624 333.999 125.028 328.914C125.028 328.914 124.174 330.229 121.649 330.799C118.911 331.403 117.026 330.194 117.026 330.194C117.026 330.194 116.705 328.273 115.959 328.096Z" fill="#2B2E3A"/>
<path d="M136.587 331.012C137.014 331.616 137.547 331.901 138.152 331.83C138.578 331.759 136.124 329.127 141.033 328.771C144.554 328.522 144.02 331.154 144.127 330.905C144.233 330.692 144.518 330.265 144.518 330.265C148.75 337.449 152.449 338.516 152.094 341.824C151.738 345.167 150.173 348.475 144.376 347.443C138.578 346.376 136.409 343.424 136.16 341.29C135.911 339.192 136.587 331.012 136.587 331.012Z" fill="#2B2E3A"/>
<path d="M146.261 265.606C146.403 259.24 146.937 249.708 146.972 244.195C130.043 246.969 114.429 245.76 104.613 243.982C101.803 256.394 109.379 293.668 109.77 295.624C111.193 303.555 114.892 325.712 114.323 326.602C113.54 327.846 113.54 329.233 113.54 329.233C116.136 333.217 127.34 331.616 127.34 331.616C127.197 329.909 126.202 329.554 126.202 327.42C126.202 324.539 126.451 307.609 126.451 307.574C126.273 301.314 123.89 295.766 123.854 295.695C123.854 295.695 124.494 294.735 124.494 294.379C124.494 293.881 123.676 292.636 123.676 292.636L123.463 265.57H124.957C126.522 274.462 129.687 286.092 131.039 294.77C130.612 305.333 135.093 328.38 134.204 329.731C133.315 331.118 134.915 331.616 136.551 332.114C138.294 332.648 147.897 331.83 146.545 329.98C145.229 328.131 147.043 328.06 146.545 326.246C145.727 323.543 145.976 280.722 146.261 265.606Z" fill="#31374C"/>
<path d="M131.857 175.482C131.857 175.482 135.591 175.482 139.894 178.15L136.196 183.84L131.857 175.482Z" fill="#BAE8E8"/>
<path d="M124.423 176.407C124.423 176.407 107.672 198.244 101.803 240.745C101.803 240.745 105.36 190.277 110.624 183.093C114.109 180.781 118.306 179.252 124.423 176.407Z" fill="#BAE8E8"/>
<path d="M101.839 240.781C101.91 238.327 102.088 235.908 102.23 233.454C102.408 231.036 102.586 228.582 102.764 226.163C103.155 221.291 103.653 216.418 104.222 211.581C104.506 209.163 104.826 206.744 105.182 204.326C105.538 201.907 105.929 199.489 106.391 197.106C106.854 194.687 107.352 192.305 107.956 189.957C108.276 188.784 108.632 187.61 109.023 186.436C109.45 185.298 109.877 184.124 110.624 183.164L110.161 183.947L109.806 184.8C109.663 185.085 109.592 185.369 109.486 185.654C109.379 185.938 109.272 186.223 109.201 186.507C108.845 187.681 108.561 188.855 108.312 190.028C107.778 192.411 107.352 194.794 106.96 197.213C106.214 202.014 105.573 206.851 104.969 211.688C104.364 216.525 103.866 221.362 103.297 226.234L101.839 240.781Z" fill="#49889E"/>
<path d="M116.243 154.818C116.243 154.818 119.373 169.934 121.756 181.848L117.986 187.503L119.586 202.014L144.233 201.694L139.823 185.974L136.124 181.528L133.955 164.314L116.243 154.818Z" fill="#CE7F67"/>
<path d="M133.493 160.438L116.243 154.854C116.243 154.854 118.839 167.942 121.293 179.714C125.455 183.093 135.164 174.095 135.164 174.095L133.493 160.438Z" fill="#9E5E57"/>
<path d="M121.756 181.848C121.649 182.488 123.072 183.057 123.961 183.164C131.43 184.018 135.626 177.758 135.626 177.758C139.966 177.474 143.842 183.129 144.909 184.053C152.165 190.526 145.194 225.523 144.731 227.977C144.269 230.431 142.384 241.777 142.384 241.777C142.384 241.777 152.2 289.826 126.948 287.337C109.521 285.594 100.665 281.611 100.665 281.611C100.665 281.611 101.981 238.434 104.542 234.841C106.142 223.852 106.534 203.188 107.245 198.564C107.778 195.399 111.797 180.354 117.523 179.856C118.484 179.785 121.365 179.679 121.365 179.679L121.756 181.848Z" fill="#BAE8E8"/>
<path d="M88.2527 142.655C88.2527 142.655 86.1543 131.807 80.1792 136.075C74.2041 140.378 80.1081 158.659 88.8573 156.419C88.8217 156.419 90.4222 152.542 88.2527 142.655Z" fill="#B26B57"/>
<path d="M152.2 136.822C152.2 136.822 151.382 151.795 140.677 156.917C129.972 162.074 143.024 141.197 143.024 141.197L152.2 136.822Z" fill="#31374C"/>
<path d="M88.8573 96.1346C79.539 101.861 75.6979 117.119 80.2148 128.108C81.2106 130.527 81.9575 136.36 82.7044 138.956C86.012 150.159 86.4388 159.798 86.7945 161.469C88.2527 168.44 106.391 181.564 120.155 178.754C133.67 175.98 142.989 161.007 144.589 155.459C148.395 142.37 142.669 130.989 140.001 115.66C138.152 105.204 132.639 92.009 122.965 90.124C110.304 87.6344 101.803 88.1679 88.8573 96.1346Z" fill="#CE7F67"/>
<path d="M120.191 126.65C119.124 126.259 117.95 126.828 117.595 127.895C117.203 128.962 117.772 130.136 118.839 130.527C119.906 130.918 121.08 130.349 121.471 129.282C121.827 128.179 121.258 127.041 120.191 126.65Z" fill="#2B2E3A"/>
<path d="M120.724 127.361C120.44 127.255 120.12 127.397 120.013 127.717C119.906 128.002 120.049 128.322 120.369 128.428C120.653 128.535 120.973 128.393 121.08 128.073C121.187 127.788 121.045 127.468 120.724 127.361Z" fill="white"/>
<path d="M94.2989 131.416C93.2319 131.025 92.0583 131.594 91.7026 132.661C91.3114 133.728 91.8804 134.901 92.9474 135.293C94.0144 135.684 95.1881 135.115 95.5793 134.048C95.8994 132.981 95.3303 131.807 94.2989 131.416Z" fill="#2B2E3A"/>
<path d="M94.8324 132.127C94.5479 132.02 94.2278 132.163 94.1211 132.483C94.0144 132.767 94.1566 133.087 94.4767 133.194C94.7613 133.301 95.0814 133.159 95.1881 132.839C95.2592 132.59 95.1169 132.234 94.8324 132.127Z" fill="white"/>
<g opacity="0.2">
<path opacity="0.2" d="M119.764 134.795C119.978 136.253 122.147 137.142 124.601 136.715C127.055 136.288 128.869 134.759 128.656 133.301C128.442 131.843 126.273 130.954 123.819 131.38C121.365 131.807 119.551 133.336 119.764 134.795Z" fill="#EF3F54"/>
<path opacity="0.2" d="M86.4744 140.094C86.5455 141.374 88.3594 142.406 90.5289 142.406C92.6984 142.37 94.4056 141.339 94.3344 140.023C94.2633 138.742 92.4494 137.711 90.2799 137.711C88.1104 137.747 86.4032 138.778 86.4744 140.094Z" fill="#EF3F54"/>
</g>
<path opacity="0.68" d="M100.523 121.706C100.523 121.706 105.36 133.052 100.238 147.883C100.238 147.883 110.979 152.329 115.852 145.749C115.852 145.749 109.094 133.692 109.806 119.537C109.77 119.537 106.427 121.422 100.523 121.706Z" fill="url(#paint0_linear)"/>
<path d="M100.416 147.99C100.416 147.99 109.841 157.77 115.852 145.891C115.852 145.856 108.383 150.302 100.416 147.99Z" fill="#9E5E57"/>
<path d="M144.874 91.6176C144.874 91.6176 147.257 89.4481 134.275 83.1529C120.298 76.3954 107.138 80.2721 97.7844 82.6905C82.0287 86.7806 90.3511 88.7723 90.3511 88.7723C72.0702 97.0948 71.6789 110.681 74.2041 117.438C79.6813 132.341 83.2379 140.734 83.2379 140.734C83.2379 140.734 81.8508 134.475 81.6019 133.657C81.3529 132.839 77.9741 115.127 81.8508 106.2C85.7275 97.2726 106.498 90.3372 121.791 94.4984C137.085 98.6597 139.503 105.808 138.543 109.223C137.583 112.637 136.089 113.242 139.112 117.474C142.135 121.706 136.836 133.372 136.836 133.372C136.836 133.372 137.618 137.249 139.112 137.711C140.606 138.173 141.495 134.332 141.495 134.332C144.66 122.596 152.698 131.736 152.698 131.736C152.698 131.736 155.117 119.75 154.263 107.836C153.41 95.9567 144.874 91.6176 144.874 91.6176Z" fill="#31374C"/>
<path d="M80.9261 130.669C77.9741 118.15 85.7631 105.453 98.389 102.785C99.5982 102.536 100.914 102.358 102.266 102.252C120.44 101.042 134.773 108.689 135.876 117.474C136.978 126.259 136.445 131.949 141.495 134.332C141.495 134.332 148.644 136.822 144.625 155.458C144.625 155.458 152.271 156.561 154.085 144.789C155.899 132.981 166.356 109.543 154.477 95.423C142.597 81.3033 136.267 76.573 116.279 78.2446C96.2906 79.9162 82.8111 78.8492 74.7021 97.0946C66.5219 115.375 68.0512 131.736 83.9492 143.508L80.9261 130.669Z" fill="#BAE8E8"/>
<path d="M136.16 116.727C136.729 116.585 137.12 116.194 137.405 115.767C137.689 115.34 137.903 114.842 138.045 114.344C138.081 114.202 138.116 114.095 138.152 113.953C138.187 113.811 138.223 113.668 138.223 113.526C138.294 113.242 138.365 112.993 138.472 112.708C138.685 112.175 138.934 111.677 139.361 111.179C139.574 111.819 139.539 112.424 139.468 112.993C139.432 113.277 139.361 113.562 139.254 113.846C139.219 113.988 139.148 114.131 139.076 114.273L138.899 114.7C138.65 115.269 138.294 115.802 137.832 116.229C137.405 116.585 136.729 116.869 136.16 116.727Z" fill="#92DDDA"/>
<path d="M131.928 163.994C143.06 152.008 147.114 145.607 144.909 136.893C143.415 130.953 153.125 128.25 149.284 127.326C144.554 126.223 133.279 136.893 125.881 140.414C125.49 140.592 125.135 140.876 124.708 140.627C124.281 140.378 123.996 139.703 124.352 139.489C131.928 134.972 143.949 124.48 149.497 125.761C154.085 126.828 144.874 130.029 146.581 136.715C148.928 145.962 144.767 152.791 133.279 165.203C133.137 165.31 131.643 164.314 131.928 163.994Z" fill="#49889E"/>
<path d="M137.085 117.474C137.085 117.474 146.794 119.039 153.943 123.093C153.943 123.093 154.263 126.508 153.196 128.891C153.196 128.891 145.585 125.121 138.045 123.911L137.085 117.474Z" fill="#57617F"/>
<path d="M141.246 131.416C141.246 131.416 141.637 122.204 148.466 124.089C155.259 126.01 156.504 148.559 144.269 147.314C144.233 147.278 139.539 143.437 141.246 131.416Z" fill="#CE7F67"/>
<path d="M150.671 129.531C150.173 129.353 149.675 129.246 149.177 129.211C148.679 129.14 148.181 129.14 147.719 129.246C146.794 129.388 146.047 129.993 145.656 130.776C145.443 131.167 145.301 131.629 145.194 132.092C145.087 132.554 145.016 133.016 144.98 133.514C144.874 134.474 144.945 135.47 144.98 136.466L144.198 135.897C144.731 135.755 145.194 135.719 145.692 135.684C146.19 135.684 146.723 135.719 147.221 135.897C147.719 136.075 148.217 136.324 148.608 136.68C148.715 136.786 148.786 136.893 148.893 136.964L149.035 137.106L149.142 137.284L149.355 137.64L149.497 137.995C149.675 138.458 149.782 138.991 149.746 139.489C149.711 140.023 149.568 140.521 149.284 140.947C148.715 141.801 147.861 142.299 146.972 142.512C147.755 142.05 148.466 141.445 148.786 140.663C148.928 140.272 149.035 139.88 148.964 139.489C148.928 139.098 148.822 138.707 148.644 138.351L148.501 138.102L148.324 137.889L148.252 137.782L148.146 137.675C148.075 137.604 148.004 137.533 147.932 137.498C147.648 137.284 147.292 137.106 146.937 137.035C146.581 136.928 146.154 136.928 145.763 136.928C145.372 136.928 144.909 137 144.589 137.106L143.842 137.32L143.771 136.573C143.7 135.541 143.7 134.474 143.807 133.407C143.949 132.34 144.198 131.273 144.803 130.278C145.123 129.815 145.549 129.353 146.047 129.068C146.545 128.784 147.114 128.642 147.683 128.606C148.252 128.606 148.786 128.677 149.284 128.855C149.782 128.997 150.244 129.246 150.671 129.531Z" fill="#9E5E57"/>
<path d="M84.7317 126.757C87.2925 124.872 89.462 120.96 94.6902 120.675C96.0772 120.533 97.1087 119.11 95.117 117.261C91.5959 114.415 85.5142 118.861 83.3091 124.018C82.74 126.33 83.2735 127.61 84.7317 126.757Z" fill="#31374C"/>
<path d="M126.059 117.901C122.93 117.403 117.559 114.309 112.758 116.407C111.477 116.905 109.877 116.123 110.837 113.526C112.687 109.401 121.791 111.179 126.059 114.807C127.66 116.62 127.731 118.008 126.059 117.901Z" fill="#31374C"/>
<path d="M100.843 159.335C103.368 159.264 105.822 159.229 108.241 159.086C109.45 159.015 110.659 158.944 111.868 158.731C113.078 158.517 114.251 158.233 115.425 157.842C117.701 157.095 119.835 155.814 121.614 154.214C122.503 153.396 123.321 152.507 123.996 151.546C124.672 150.586 125.241 149.519 125.526 148.381L126.735 148.701C126.379 150.017 125.775 151.191 125.028 152.258C124.281 153.325 123.392 154.285 122.432 155.139C120.511 156.846 118.27 158.197 115.816 159.015C114.607 159.442 113.362 159.727 112.117 159.976C110.873 160.224 109.592 160.438 108.347 160.473C107.067 160.545 105.787 160.473 104.542 160.296C103.297 160.153 102.017 159.869 100.843 159.335Z" fill="#9E5E57"/>
<path d="M129.082 151.617C128.62 151.119 128.193 150.764 127.766 150.408C127.304 150.052 126.877 149.732 126.415 149.448C125.953 149.163 125.455 148.879 124.957 148.63C124.459 148.381 123.925 148.167 123.285 147.99C123.854 147.67 124.566 147.598 125.206 147.67C125.881 147.776 126.486 147.99 127.055 148.345C127.624 148.701 128.122 149.163 128.478 149.697C128.833 150.301 129.118 150.942 129.082 151.617Z" fill="#9E5E57"/>
<path d="M137.583 176.94C137.583 176.94 125.81 189.993 124.672 212.15C123.748 230.573 123.463 287.017 126.913 287.337C136.053 288.119 147.826 286.412 153.836 284.42C159.847 282.429 159.883 278.765 158.993 274.32C158.104 269.981 152.627 246.863 153.196 194.759C153.267 187.681 147.363 180.888 147.363 180.888L137.583 176.94Z" fill="#BAE8E8"/>
<path d="M82.9534 139.418C82.9534 139.418 83.0956 140.592 83.4513 141.516C86.2966 142.477 89.1774 144.646 92.485 146.993C92.8763 147.278 93.4098 147.207 93.6587 146.851C93.9077 146.496 93.801 145.962 93.3742 145.713C89.5686 143.01 86.1543 140.343 82.9534 139.418Z" fill="#49889E"/>
<path d="M86.5455 159.264C86.5455 159.264 86.6166 160.651 86.83 161.433C87.8615 162.856 91.8448 166.342 95.188 168.689C95.5793 168.973 96.1128 168.902 96.3617 168.547C96.6107 168.191 96.504 167.657 96.0772 167.409C92.2361 164.741 88.715 161.86 86.5455 159.264Z" fill="#49889E"/>
<path opacity="0.6" d="M89.9243 115.695L118.946 111.285C125.455 110.289 131.536 114.771 132.532 121.279C133.599 128.25 128.798 134.759 121.827 135.826L116.883 136.573C115.639 136.75 114.358 136.466 113.327 135.719C112.295 135.008 111.015 134.688 109.77 134.865L105.502 135.506C104.293 135.683 103.19 136.324 102.408 137.284L102.301 137.391C101.519 138.351 100.416 138.991 99.207 139.169L94.4412 139.88C87.4703 140.947 80.9617 136.146 79.8947 129.175C78.9344 122.773 83.4157 116.691 89.9243 115.695Z" fill="#F7F7FA"/>
<path d="M89.9243 115.695L118.946 111.285C125.455 110.289 131.536 114.771 132.532 121.279C133.599 128.25 128.798 134.759 121.827 135.826L116.883 136.573C115.639 136.75 114.358 136.466 113.327 135.719C112.295 135.008 111.015 134.688 109.77 134.865L105.502 135.506C104.293 135.683 103.19 136.324 102.408 137.284L102.301 137.391C101.519 138.351 100.416 138.991 99.207 139.169L94.4412 139.88C87.4703 140.947 80.9617 136.146 79.8947 129.175C78.9344 122.773 83.4157 116.691 89.9243 115.695Z" stroke="#F7F7FA" stroke-width="3.4006" stroke-miterlimit="10"/>
<path d="M125.917 112.352C125.917 112.352 130.861 113.206 135.378 115.02C136.48 115.482 137.263 116.513 137.405 117.687L138.045 123.911C138.045 123.911 136.373 123.769 134.666 123.876C132.924 123.982 131.714 128.108 131.714 128.108L132.817 121.991L130.043 115.624L125.917 112.352Z" fill="#F7F7FA"/>
<path d="M107.209 179.607C115.887 180.674 120.262 179.465 127.767 176.122C133.848 173.419 140.641 166.626 138.828 159.477L138.258 157.201C135.662 147.064 126.059 138.457 115.852 134.474C115.852 134.474 112.295 132.162 110.624 131.38C107.956 130.135 104.933 130.562 103.084 132.447C101.981 133.585 98.9581 137.284 98.9581 137.284C91.5604 143.721 88.0393 153.786 90.9202 163.887L91.5604 166.163C93.5876 173.241 100.167 178.754 107.209 179.607Z" fill="#F7F7FA"/>
<path d="M138.223 157.165C138.045 156.454 137.832 155.743 137.583 155.031C140.108 169.755 95.686 176.051 90.3511 161.682C90.4934 162.393 90.6712 163.105 90.8846 163.816L91.5248 166.092C93.5521 173.205 100.132 178.718 107.174 179.572C115.852 180.639 120.227 179.429 127.731 176.086C133.813 173.383 140.606 166.59 138.792 159.441L138.223 157.165Z" fill="#BAE8E8"/>
<path d="M107.209 178.256C101.234 177.473 95.686 172.601 94.0855 166.626L93.4454 164.314C90.8846 154.889 93.3742 145.464 99.9539 139.738L105.075 135.257C106.391 134.118 108.347 133.834 110.161 134.545L117.203 137.284C126.273 140.805 133.457 148.878 135.947 158.303L136.551 160.615C138.152 166.59 134.24 170.538 129.403 173.454C121.009 178.505 111.406 178.825 107.209 178.256ZM107.636 135.008C106.889 135.114 106.214 135.434 105.644 135.897L100.523 140.378C94.1567 145.926 91.7382 155.067 94.2278 164.243L94.868 166.555C96.3973 172.174 101.59 176.798 107.245 177.509C111.335 178.042 119.906 177.936 129.011 172.779C133.635 170.147 137.298 166.412 135.804 160.757L135.2 158.446C132.781 149.27 125.81 141.445 117.026 138.031L109.984 135.292C109.166 135.008 108.383 134.901 107.636 135.008Z" fill="#92DDDA"/>
<path d="M113.54 137.995C113.184 138.031 112.758 137.959 112.402 137.71C108.632 135.256 106.036 135.612 103.902 138.884C103.475 139.524 102.55 139.667 101.803 139.169C101.092 138.671 100.843 137.746 101.27 137.07C104.222 132.518 108.703 131.878 113.896 135.256C114.643 135.754 114.892 136.679 114.5 137.319C114.287 137.746 113.931 137.959 113.54 137.995Z" fill="#8698BF"/>
<path d="M75.3067 203.223C75.3067 203.223 75.8402 204.646 76.3381 204.931C76.836 205.215 76.4448 205.429 76.8716 205.784C77.1561 206.033 80.5349 206.531 82.8822 203.223C83.7003 202.05 84.8028 200.698 84.8384 200.485C84.9451 199.809 84.6605 200.058 84.4116 199.702C84.1626 199.347 81.3885 196.501 80.6772 196.324C79.9658 196.11 75.3067 203.223 75.3067 203.223Z" fill="#92DDDA"/>
<path d="M79.788 199.56C79.788 199.56 83.6647 199.204 83.0601 192.091C82.9534 190.597 82.2065 188.037 82.1354 187.219C82.0642 186.401 82.1709 183.449 82.8467 182.559C83.5224 181.67 83.9492 180.995 83.4157 180.354C82.8822 179.679 80.1081 179.252 78.8633 181.955C77.6185 184.658 78.2587 186.899 78.2587 186.899C78.2587 186.899 76.0536 184.16 74.9154 184.16C74.4175 184.16 69.3672 183.84 68.3002 185.12C67.909 185.618 66.842 196.217 67.0198 196.715C67.1621 197.248 72.0702 205.5 76.836 204.682C79.0055 204.29 79.788 199.845 79.788 199.56Z" fill="#92DDDA"/>
<path d="M69.7584 194.474C70.0429 194.332 70.3275 194.225 70.612 194.19L71.4656 194.118C72.0346 194.083 72.6037 194.047 73.2083 194.083C73.3506 194.083 73.5284 194.118 73.6707 194.154C73.7062 194.154 73.7418 194.19 73.8129 194.19C73.8485 194.225 73.9196 194.225 73.9552 194.261C74.0263 194.296 74.0975 194.367 74.1686 194.403C74.4176 194.616 74.5954 194.83 74.8088 195.079C74.9866 195.328 75.1644 195.541 75.3067 195.79L75.5557 196.146L75.6624 196.324L75.7335 196.43L75.7691 196.537C75.9113 196.822 76.018 197.106 76.0536 197.462C76.0892 197.782 76.0536 198.173 75.8758 198.458C75.6979 198.778 75.449 198.991 75.1644 199.169C74.8799 199.347 74.5954 199.453 74.3109 199.525C74.0263 199.596 73.7062 199.667 73.4217 199.667C73.2795 199.667 73.1372 199.702 72.9593 199.702C72.8171 199.702 72.6748 199.702 72.4614 199.667C72.248 199.596 72.1413 199.525 71.9991 199.453C71.8568 199.382 71.7501 199.276 71.6078 199.204C71.5011 199.098 71.3944 199.027 71.2522 198.92L71.0744 198.778C71.0032 198.707 70.9677 198.707 70.8965 198.6L71.2878 198.315C71.6079 198.635 72.1413 199.027 72.5326 199.169C72.6037 199.169 72.7815 199.169 72.8882 199.169C73.0305 199.169 73.1727 199.133 73.2794 199.133C73.564 199.098 73.8129 199.027 74.0619 198.955C74.5598 198.813 75.0577 198.564 75.2356 198.173C75.449 197.817 75.3423 197.284 75.1289 196.822L75.0933 196.75L75.0577 196.679L74.9511 196.501L74.7376 196.146C74.5954 195.932 74.4176 195.683 74.2397 195.47C74.0619 195.257 73.8841 195.043 73.7062 194.901C73.6707 194.865 73.5995 194.83 73.564 194.794C73.5284 194.759 73.4928 194.759 73.4573 194.759C73.3506 194.723 73.2083 194.723 73.1016 194.688C72.5681 194.652 71.9991 194.652 71.43 194.652C70.9321 194.723 70.3275 194.901 69.7584 194.474Z" fill="#49889E"/>
<path d="M70.0074 191.202C70.8965 190.953 71.7857 191.06 72.6748 191.095C73.1016 191.131 73.564 191.131 73.9907 191.202C74.2041 191.237 74.4175 191.237 74.7021 191.344C75.0222 191.451 75.2 191.664 75.3422 191.842C75.6623 192.233 75.8402 192.66 75.9824 193.122C76.1247 193.549 76.2314 194.012 76.267 194.474C76.3381 194.936 76.3381 195.399 76.267 195.861C76.1958 196.359 76.018 196.75 75.8046 197.177L75.3422 196.964C75.4134 196.786 75.4845 196.572 75.5557 196.359C75.5912 196.252 75.6268 196.146 75.6268 196.039L75.6624 195.754C75.6979 195.363 75.6623 194.936 75.6268 194.51C75.5201 193.692 75.2711 192.838 74.8088 192.233C74.7021 192.091 74.5598 191.949 74.4531 191.913C74.3108 191.842 74.0974 191.807 73.8841 191.771C73.4573 191.7 73.0305 191.664 72.6037 191.629C71.7501 191.558 70.8609 191.593 70.0074 191.202Z" fill="#49889E"/>
<path d="M75.8757 194.261C76.2669 193.976 76.587 193.62 76.7293 193.158C76.9071 192.731 76.9427 192.233 76.8716 191.771C76.7649 190.811 76.3736 189.815 75.769 189.032C75.4489 188.641 75.0933 188.357 74.6665 188.25C74.2041 188.108 73.6706 188.072 73.1727 188.072C72.6392 188.037 72.1413 188.037 71.6078 188.037C71.3588 188.037 71.0743 188.001 70.8253 187.965C70.5764 187.894 70.2919 187.859 70.0429 187.681C70.3274 187.681 70.5764 187.645 70.8253 187.61C71.0743 187.574 71.3588 187.539 71.6078 187.539C72.1413 187.503 72.6748 187.503 73.2083 187.503C73.7418 187.503 74.2753 187.539 74.8443 187.681C75.4489 187.823 75.9468 188.25 76.3025 188.677C76.6582 189.104 76.9427 189.601 77.1561 190.135C77.3695 190.668 77.5117 191.202 77.5829 191.771C77.654 192.34 77.5829 192.945 77.3339 193.478C77.085 194.012 76.6937 194.474 76.1958 194.794L75.8757 194.261Z" fill="#49889E"/>
<path d="M77.334 185.832C77.7252 186.08 78.0809 186.365 78.3298 186.792C78.5788 187.254 78.5788 187.788 78.4721 188.25C78.3654 188.712 78.2231 189.175 77.8675 189.566C77.6896 189.779 77.4407 189.922 77.1917 189.993C76.9427 190.064 76.6582 190.064 76.4448 190.064V189.566C76.6938 189.566 76.8716 189.566 77.0139 189.53C77.1917 189.495 77.334 189.388 77.4407 189.246C77.6896 188.961 77.8319 188.57 77.903 188.179C77.9742 187.788 77.9741 187.396 77.8319 187.041C77.7252 186.65 77.4407 186.329 77.334 185.832Z" fill="#49889E"/>
<path d="M73.2082 198.351C72.8881 198.493 72.568 198.6 72.2124 198.671C71.8567 198.742 71.5366 198.778 71.181 198.813C70.8253 198.813 70.4696 198.813 70.114 198.742C69.7583 198.671 69.4027 198.529 69.1537 198.244C69.5094 198.315 69.8295 198.315 70.1496 198.315L71.1454 198.28C71.4655 198.28 71.8212 198.244 72.1412 198.28C72.4969 198.244 72.8526 198.244 73.2082 198.351Z" fill="#49889E"/>
<path d="M149.782 235.482C149.782 235.482 144.874 235.34 142.669 233.561C140.463 231.783 138.365 231.178 136.516 233.561C134.666 235.944 133.742 236.264 133.457 238.114C133.172 240.034 131.608 242.666 133.421 242.239C135.235 241.777 135.84 238.363 135.84 238.363L138.009 236.193C138.009 236.193 136.373 240.07 137.049 241.777C137.725 243.484 142.277 245.44 143.629 244.978C144.98 244.516 145.052 242.737 145.052 242.737C145.052 242.737 149.888 246.009 155.33 241.848L162.408 228.938L153.232 226.484L149.782 235.482Z" fill="#92DDDA"/>
<path d="M141.886 238.612C141.708 239.181 141.53 239.75 141.388 240.319C141.246 240.888 141.104 241.457 141.068 242.026C141.032 242.275 141.068 242.595 141.068 242.702C141.104 242.951 141.246 243.2 141.353 243.449C141.637 243.946 141.957 244.444 142.313 244.942C141.779 244.658 141.281 244.267 140.855 243.804C140.641 243.555 140.428 243.306 140.286 242.986C140.108 242.524 140.214 242.204 140.286 241.884C140.463 241.279 140.712 240.71 140.961 240.176C141.281 239.679 141.566 239.145 141.886 238.612Z" fill="#49889E"/>
<path d="M139.29 237.723C139.112 238.292 138.934 238.861 138.792 239.43C138.65 239.999 138.507 240.568 138.472 241.137C138.436 241.386 138.472 241.706 138.472 241.813C138.507 242.062 138.65 242.311 138.756 242.56C139.041 243.057 139.361 243.555 139.717 244.053C139.183 243.769 138.685 243.378 138.258 242.915C138.045 242.666 137.832 242.417 137.689 242.097C137.511 241.635 137.618 241.315 137.689 240.995C137.867 240.39 138.116 239.821 138.365 239.287C138.65 238.754 138.97 238.221 139.29 237.723Z" fill="#49889E"/>
<path d="M144.945 240.319C144.838 240.674 144.696 241.03 144.482 241.35C144.376 241.528 144.269 241.67 144.091 241.848C143.949 241.99 143.7 242.168 143.415 242.204L143.451 241.386C143.664 241.421 143.807 241.492 143.984 241.563C144.162 241.635 144.305 241.741 144.482 241.848C144.625 241.955 144.767 242.097 144.874 242.239C144.98 242.381 145.016 242.559 145.051 242.737C144.874 242.453 144.589 242.275 144.305 242.204C144.162 242.168 144.02 242.168 143.842 242.168C143.7 242.168 143.522 242.168 143.415 242.204L143.451 241.386C143.522 241.421 143.629 241.421 143.771 241.35C143.913 241.279 144.056 241.208 144.198 241.101C144.447 240.888 144.696 240.603 144.945 240.319Z" fill="#49889E"/>
<path d="M153.267 184.729C150.493 182.168 147.363 180.852 147.363 180.852C146.581 180.319 137.334 193.407 142.313 199.809C143.522 201.374 150.92 210.728 153.552 214.355C153.552 214.355 153.161 215.351 153.232 215.671C153.303 216.027 154.085 216.383 154.085 216.383L150.031 233.383C153.552 234.557 158.424 238.754 158.424 238.754C158.424 238.754 169.059 219.477 169.059 212.328C169.059 208.202 155.579 186.827 153.267 184.729Z" fill="#BAE8E8"/>
<path d="M147.363 180.852C147.257 180.817 147.15 180.888 147.079 180.959C147.008 181.03 146.936 181.101 146.865 181.172C146.723 181.315 146.581 181.457 146.474 181.635C146.225 181.955 145.976 182.275 145.727 182.631C145.265 183.306 144.838 184.018 144.447 184.729C143.664 186.152 142.953 187.645 142.384 189.175C141.815 190.704 141.388 192.305 141.246 193.905C141.104 195.505 141.246 197.142 141.957 198.529C142.135 198.884 142.348 199.204 142.562 199.524C142.811 199.845 143.06 200.165 143.309 200.485L144.838 202.405L147.897 206.282C149.924 208.878 151.951 211.475 153.872 214.178L153.979 214.355L153.907 214.533C153.836 214.711 153.765 214.889 153.73 215.102C153.658 215.28 153.623 215.494 153.623 215.6C153.623 215.636 153.623 215.636 153.623 215.636C153.623 215.636 153.623 215.636 153.658 215.671C153.694 215.707 153.765 215.778 153.801 215.814C153.943 215.92 154.121 216.027 154.263 216.098L154.512 216.24L154.441 216.525L152.271 224.99C151.916 226.412 151.524 227.799 151.169 229.222C150.813 230.645 150.422 232.032 150.031 233.454C150.315 232.032 150.635 230.609 150.92 229.186C151.24 227.764 151.524 226.341 151.845 224.919L153.765 216.383L153.943 216.774C153.73 216.667 153.552 216.561 153.338 216.418C153.232 216.347 153.161 216.276 153.054 216.134C153.018 216.063 152.947 215.991 152.912 215.92C152.876 215.814 152.876 215.707 152.876 215.636C152.876 215.351 152.947 215.138 153.018 214.924C153.089 214.711 153.161 214.498 153.232 214.32L153.267 214.676C151.311 212.044 149.284 209.447 147.257 206.851L144.233 202.939L142.704 200.983C142.455 200.663 142.206 200.342 141.957 199.987C141.708 199.631 141.459 199.275 141.281 198.884C140.535 197.319 140.428 195.541 140.641 193.869C140.855 192.198 141.317 190.597 141.957 189.032C142.562 187.503 143.344 186.009 144.233 184.622C144.66 183.911 145.123 183.235 145.656 182.595C145.905 182.275 146.154 181.955 146.439 181.635C146.581 181.492 146.723 181.35 146.865 181.208C146.936 181.137 147.008 181.066 147.114 181.03C147.185 180.888 147.257 180.817 147.363 180.852Z" fill="#49889E"/>
<path d="M120.902 181.493C121.293 182.311 119.195 182.168 119.195 182.168C119.195 182.168 120.369 180.354 120.902 181.493Z" fill="#92DDDA"/>
<path d="M129.794 183.555C130.612 183.164 130.469 185.298 130.469 185.298C130.469 185.298 128.656 184.089 129.794 183.555Z" fill="#92DDDA"/>
<path d="M135.306 179.216C136.018 178.612 136.445 180.71 136.445 180.71C136.445 180.71 134.346 180.034 135.306 179.216Z" fill="#92DDDA"/>
<path d="M85.443 110.716C85.0518 110.823 84.625 110.574 84.3404 110.254C84.0559 109.934 83.9137 109.543 83.807 109.151C83.5936 108.369 83.5936 107.622 83.6647 106.84C83.7358 106.093 83.9137 105.346 84.2338 104.635C84.5183 103.959 84.9095 103.283 85.443 102.75L85.0518 104.884C84.9451 105.559 84.8384 106.271 84.7672 106.946C84.6961 107.622 84.625 108.333 84.6606 108.974C84.6606 109.294 84.6961 109.614 84.8028 109.934C84.9095 110.29 85.0873 110.574 85.443 110.716Z" fill="#92DDDA"/>
<path d="M133.955 112.744C134.595 112.566 134.986 112.139 135.306 111.641C135.591 111.143 135.804 110.61 135.947 110.041C136.018 109.756 136.053 109.507 136.053 109.223C136.089 108.938 136.089 108.654 136.089 108.369C136.089 107.8 136.089 107.195 136.16 106.484C136.658 106.946 136.942 107.587 137.085 108.262C137.227 108.903 137.191 109.685 136.871 110.325C136.622 110.93 136.302 111.57 135.804 112.032C135.306 112.566 134.595 112.886 133.955 112.744Z" fill="#92DDDA"/>
<path d="M87.897 108.12C87.5769 108.049 87.328 107.764 87.1502 107.48C86.9723 107.195 86.8656 106.875 86.7589 106.555C86.6878 106.235 86.6167 105.915 86.6167 105.595C86.5811 105.452 86.6167 105.275 86.6167 105.097C86.6167 104.919 86.6522 104.777 86.6878 104.599C86.8301 103.923 87.079 103.319 87.4703 102.821C87.8259 102.287 88.2883 101.825 88.8573 101.54L88.2527 103.247C88.0749 103.781 87.897 104.314 87.7903 104.848C87.7548 105.097 87.7192 105.346 87.6836 105.63C87.6836 105.915 87.6481 106.199 87.6481 106.484C87.6481 106.768 87.6481 107.053 87.6836 107.337C87.6836 107.551 87.7192 107.835 87.897 108.12Z" fill="#92DDDA"/>
</g>
</g>
<defs>
<linearGradient id="paint0_linear" x1="104.799" y1="120.167" x2="108.279" y2="149.426" gradientUnits="userSpaceOnUse">
<stop stop-color="#CE7F67"/>
<stop offset="0.3346" stop-color="#CB7D66"/>
<stop offset="0.59" stop-color="#C17663"/>
<stop offset="0.8183" stop-color="#B16B5D"/>
<stop offset="1" stop-color="#9E5E57"/>
</linearGradient>
<clipPath id="clip0">
<rect width="364" height="348" fill="white"/>
</clipPath>
</defs>
</svg>
